<?xml version="1.0" encoding="UTF-8" standalone="no"?>
<svg
   version="1.1"
   width="789"
   height="257"
   id="svg298"
   sodipodi:docname="anomalies-lifecycle.svg"
   inkscape:version="1.1.2 (08b2f3d93c, 2022-04-05)"
   xmlns:inkscape="http://www.inkscape.org/namespaces/inkscape"
   xmlns:sodipodi="http://sodipodi.sourceforge.net/DTD/sodipodi-0.dtd"
   xmlns="http://www.w3.org/2000/svg"
   xmlns:svg="http://www.w3.org/2000/svg">
  <sodipodi:namedview
     id="namedview300"
     pagecolor="#ffffff"
     bordercolor="#666666"
     borderopacity="1.0"
     inkscape:pageshadow="2"
     inkscape:pageopacity="0.0"
     inkscape:pagecheckerboard="0"
     showgrid="false"
     inkscape:zoom="1.7515843"
     inkscape:cx="394.78546"
     inkscape:cy="128.74059"
     inkscape:window-width="3840"
     inkscape:window-height="2336"
     inkscape:window-x="0"
     inkscape:window-y="27"
     inkscape:window-maximized="1"
     inkscape:current-layer="g296" />
  <defs
     id="defs2" />
  <g
     id="g296">
    <g
       transform="translate(-222,-213)"
       id="g78">
      <path
         fill="#c0c0c0"
         stroke="none"
         d="m 239,344.5 c 0,-5.24671 4.25329,-9.5 9.5,-9.5 5.24671,0 9.5,4.25329 9.5,9.5 0,5.24671 -4.25329,9.5 -9.5,9.5 -5.24671,0 -9.5,-4.25329 -9.5,-9.5 z"
         opacity="0.2"
         id="path76" />
    </g>
    <g
       transform="translate(-222,-213)"
       id="g82">
      <path
         fill="#000000"
         stroke="none"
         d="m 232,337.5 c 0,-5.24671 4.25329,-9.5 9.5,-9.5 5.24671,0 9.5,4.25329 9.5,9.5 0,5.24671 -4.25329,9.5 -9.5,9.5 -5.24671,0 -9.5,-4.25329 -9.5,-9.5 z"
         id="path80" />
    </g>
    <g
       transform="translate(-222,-213)"
       id="g86">
      <path
         fill="#c0c0c0"
         stroke="none"
         d="m 425,327 h 56.90088 q 10,0 10,10 v 19 q 0,10 -10,10 H 425 q -10,0 -10,-10 v -19 q 0,-10 10,-10 z"
         opacity="0.2"
         id="path84" />
    </g>
    <g
       transform="translate(-222,-213)"
       id="g90">
      <path
         fill="#ffffff"
         stroke="none"
         d="m 418,320 h 56.90088 q 10,0 10,10 v 19 q 0,10 -10,10 H 418 q -10,0 -10,-10 v -19 q 0,-10 10,-10 z"
         id="path88" />
    </g>
    <g
       transform="translate(-222,-213)"
       id="g94">
      <path
         fill="none"
         stroke="#000000"
         d="m 418,320 h 56.90088 q 10,0 10,10 v 19 q 0,10 -10,10 H 418 q -10,0 -10,-10 v -19 q 0,-10 10,-10 z"
         stroke-miterlimit="10"
         id="path92" />
    </g>
    <g
       transform="translate(-222,-213)"
       id="g102">
      <g
         id="g100">
        <path
           fill="none"
           stroke="none"
           id="path96"
           d="" />
        <text
           fill="#000000"
           stroke="none"
           font-family="Arial"
           font-size="13px"
           font-style="normal"
           font-weight="bold"
           text-decoration="none"
           x="427.30591"
           y="337.5"
           id="text98"
           style="text-decoration:none;text-decoration-line:none">A trier</text>
      </g>
    </g>
    <g
       transform="translate(-222,-213)"
       id="g106">
      <path
         fill="#c0c0c0"
         stroke="none"
         d="m 625,279 h 72.07178 q 10,0 10,10 v 19 q 0,10 -10,10 H 625 q -10,0 -10,-10 v -19 q 0,-10 10,-10 z"
         opacity="0.2"
         id="path104" />
    </g>
    <g
       transform="translate(-222,-213)"
       id="g110">
      <path
         fill="#ffffff"
         stroke="none"
         d="m 618,272 h 72.07178 q 10,0 10,10 v 19 q 0,10 -10,10 H 618 q -10,0 -10,-10 v -19 q 0,-10 10,-10 z"
         id="path108" />
    </g>
    <g
       transform="translate(-222,-213)"
       id="g114">
      <path
         fill="none"
         stroke="#000000"
         d="m 618,272 h 72.07178 q 10,0 10,10 v 19 q 0,10 -10,10 H 618 q -10,0 -10,-10 v -19 q 0,-10 10,-10 z"
         stroke-miterlimit="10"
         id="path112" />
    </g>
    <g
       transform="translate(-222,-213)"
       id="g122">
      <g
         id="g120">
        <path
           fill="none"
           stroke="none"
           id="path116"
           d="" />
        <text
           fill="#000000"
           stroke="none"
           font-family="Arial"
           font-size="13px"
           font-style="normal"
           font-weight="bold"
           text-decoration="none"
           x="612.5"
           y="289.5"
           id="text118"
           style="text-decoration:none;text-decoration-line:none">Confirmé dev</text>
      </g>
    </g>
    <g
       transform="translate(-222,-213)"
       id="g126">
      <path
         fill="#c0c0c0"
         stroke="none"
         d="m 833,327 h 39 q 10,0 10,10 v 19 q 0,10 -10,10 h -39 q -10,0 -10,-10 v -19 q 0,-10 10,-10 z"
         opacity="0.2"
         id="path124" />
    </g>
    <g
       transform="translate(-222,-213)"
       id="g130">
      <path
         fill="#ffffff"
         stroke="none"
         d="m 826,320 h 39 q 10,0 10,10 v 19 q 0,10 -10,10 h -39 q -10,0 -10,-10 v -19 q 0,-10 10,-10 z"
         id="path128" />
    </g>
    <g
       transform="translate(-222,-213)"
       id="g134">
      <path
         fill="none"
         stroke="#000000"
         d="m 826,320 h 39 q 10,0 10,10 v 19 q 0,10 -10,10 h -39 q -10,0 -10,-10 v -19 q 0,-10 10,-10 z"
         stroke-miterlimit="10"
         id="path132" />
    </g>
    <g
       transform="translate(-222,-213)"
       id="g142">
      <g
         id="g140">
        <path
           fill="none"
           stroke="none"
           id="path136"
           d="" />
        <text
           fill="#000000"
           stroke="none"
           font-family="Arial"
           font-size="13px"
           font-style="normal"
           font-weight="bold"
           text-decoration="none"
           x="823.8291"
           y="337.5"
           id="text138"
           style="text-decoration:none;text-decoration-line:none">Résolu</text>
      </g>
    </g>
    <g
       transform="translate(-222,-213)"
       id="g146">
      <path
         fill="none"
         stroke="#000000"
         d="m 252,337 155,2"
         stroke-miterlimit="10"
         id="path144" />
    </g>
    <g
       transform="translate(-222,-213)"
       id="g150">
      <path
         fill="none"
         stroke="#000000"
         d="M 396.78386,343.07805 407,339 396.89248,334.65971"
         stroke-miterlimit="10"
         id="path148" />
    </g>
    <g
       transform="translate(-222,-213)"
       id="g158">
      <g
         id="g156">
        <path
           fill="none"
           stroke="none"
           id="path152"
           d="" />
        <text
           fill="#000000"
           stroke="none"
           font-family="Arial"
           font-size="13px"
           font-style="normal"
           font-weight="normal"
           text-decoration="none"
           x="286.5"
           y="327.5"
           id="text154"
           style="text-decoration:none;text-decoration-line:none">un test échoue</text>
      </g>
    </g>
    <g
       transform="translate(-222,-213)"
       id="g162">
      <path
         fill="#c0c0c0"
         stroke="none"
         d="m 983,347.5 c 0,-6.90356 5.59644,-12.5 12.5,-12.5 6.9036,0 12.5,5.59644 12.5,12.5 0,6.90356 -5.5964,12.5 -12.5,12.5 -6.90356,0 -12.5,-5.59644 -12.5,-12.5 z"
         opacity="0.2"
         id="path160" />
    </g>
    <g
       transform="translate(-222,-213)"
       id="g166">
      <path
         fill="none"
         stroke="#000000"
         d="m 976,340.5 c 0,-6.90356 5.59644,-12.5 12.5,-12.5 6.90356,0 12.5,5.59644 12.5,12.5 0,6.90356 -5.59644,12.5 -12.5,12.5 -6.90356,0 -12.5,-5.59644 -12.5,-12.5 z"
         stroke-miterlimit="10"
         id="path164" />
    </g>
    <g
       transform="translate(-222,-213)"
       id="g170">
      <path
         fill="#000000"
         stroke="none"
         d="m 981,340.5 c 0,-4.14214 3.35786,-7.5 7.5,-7.5 4.14214,0 7.5,3.35786 7.5,7.5 0,4.14214 -3.35786,7.5 -7.5,7.5 -4.14214,0 -7.5,-3.35786 -7.5,-7.5 z"
         id="path168" />
    </g>
    <g
       transform="translate(-222,-213)"
       id="g174">
      <path
         fill="none"
         stroke="#000000"
         d="m 876,339 99,1"
         stroke-miterlimit="10"
         id="path172" />
    </g>
    <g
       transform="translate(-222,-213)"
       id="g178">
      <path
         fill="none"
         stroke="#000000"
         d="M 964.79533,344.10665 975,340 964.88036,335.68805"
         stroke-miterlimit="10"
         id="path176" />
    </g>
    <g
       transform="translate(-222,-213)"
       id="g182">
      <path
         fill="none"
         stroke="#000000"
         d="M 486,330 607,302"
         stroke-miterlimit="10"
         id="path180" />
    </g>
    <g
       transform="translate(-222,-213)"
       id="g186">
      <path
         fill="none"
         stroke="#000000"
         d="M 598.04799,308.39229 607,302 596.14993,300.19"
         stroke-miterlimit="10"
         id="path184" />
    </g>
    <g
       transform="translate(-222,-213)"
       id="g194">
      <g
         id="g192">
        <path
           fill="none"
           stroke="none"
           id="path188"
           d="" />
        <text
           fill="#000000"
           stroke="none"
           font-family="Arial"
           font-size="13px"
           font-style="normal"
           font-weight="normal"
           text-decoration="none"
           x="465.97681"
           y="297.5"
           id="text190"
           style="text-decoration:none;text-decoration-line:none">application en cause</text>
      </g>
    </g>
    <g
       transform="translate(-222,-213)"
       id="g198">
      <path
         fill="none"
         stroke="#000000"
         d="m 701,303 114,28"
         stroke-miterlimit="10"
         id="path196" />
    </g>
    <g
       transform="translate(-222,-213)"
       id="g202">
      <path
         fill="none"
         stroke="#000000"
         d="M 804.12658,332.66397 815,331 l -8.86527,-6.51207"
         stroke-miterlimit="10"
         id="path200" />
    </g>
    <g
       transform="translate(-222,-213)"
       id="g210">
      <g
         id="g208">
        <path
           fill="none"
           stroke="none"
           id="path204"
           d="" />
        <text
           fill="#000000"
           stroke="none"
           font-family="Arial"
           font-size="13px"
           font-style="normal"
           font-weight="normal"
           text-decoration="none"
           x="750.5"
           y="306.5"
           id="text206"
           style="text-decoration:none;text-decoration-line:none">le test passe</text>
      </g>
    </g>
    <g
       transform="translate(-222,-213)"
       id="g214">
      <path
         fill="#c0c0c0"
         stroke="none"
         d="m 625,391 h 72.78906 q 10,0 10,10 v 19 q 0,10 -10,10 H 625 q -10,0 -10,-10 v -19 q 0,-10 10,-10 z"
         opacity="0.2"
         id="path212" />
    </g>
    <g
       transform="translate(-222,-213)"
       id="g218">
      <path
         fill="#ffffff"
         stroke="none"
         d="m 618,384 h 72.78906 q 10,0 10,10 v 19 q 0,10 -10,10 H 618 q -10,0 -10,-10 v -19 q 0,-10 10,-10 z"
         id="path216" />
    </g>
    <g
       transform="translate(-222,-213)"
       id="g222">
      <path
         fill="none"
         stroke="#000000"
         d="m 618,384 h 72.78906 q 10,0 10,10 v 19 q 0,10 -10,10 H 618 q -10,0 -10,-10 v -19 q 0,-10 10,-10 z"
         stroke-miterlimit="10"
         id="path220" />
    </g>
    <g
       transform="translate(-222,-213)"
       id="g230">
      <g
         id="g228">
        <path
           fill="none"
           stroke="none"
           id="path224"
           d="" />
        <text
           fill="#000000"
           stroke="none"
           font-family="Arial"
           font-size="13px"
           font-style="normal"
           font-weight="bold"
           text-decoration="none"
           x="612.5"
           y="401.5"
           id="text226"
           style="text-decoration:none;text-decoration-line:none">Confirmé test</text>
      </g>
    </g>
    <g
       transform="translate(-222,-213)"
       id="g234">
      <path
         fill="none"
         stroke="#000000"
         d="m 486,351 121,38"
         stroke-miterlimit="10"
         id="path232" />
    </g>
    <g
       transform="translate(-222,-213)"
       id="g238">
      <path
         fill="none"
         stroke="#000000"
         d="M 596.04296,389.97117 607,389 l -8.43452,-7.06108"
         stroke-miterlimit="10"
         id="path236" />
    </g>
    <g
       transform="translate(-222,-213)"
       id="g246">
      <g
         id="g244">
        <path
           fill="none"
           stroke="none"
           id="path240"
           d="" />
        <text
           fill="#000000"
           stroke="none"
           font-family="Arial"
           font-size="13px"
           font-style="normal"
           font-weight="normal"
           text-decoration="none"
           x="487.5"
           y="386.5"
           id="text242"
           style="text-decoration:none;text-decoration-line:none">test en cause</text>
      </g>
    </g>
    <g
       transform="translate(-222,-213)"
       id="g250">
      <path
         fill="none"
         stroke="#000000"
         d="M 702,387 815,349"
         stroke-miterlimit="10"
         id="path248" />
    </g>
    <g
       transform="translate(-222,-213)"
       id="g254">
      <path
         fill="none"
         stroke="#000000"
         d="M 806.70915,356.22924 815,349 804.02564,348.24933"
         stroke-miterlimit="10"
         id="path252" />
    </g>
    <g
       transform="translate(-222,-213)"
       id="g262">
      <g
         id="g260">
        <path
           fill="none"
           stroke="none"
           id="path256"
           d="" />
        <text
           fill="#000000"
           stroke="none"
           font-family="Arial"
           font-size="13px"
           font-style="normal"
           font-weight="normal"
           text-decoration="none"
           x="742.5"
           y="385.5"
           id="text258"
           style="text-decoration:none;text-decoration-line:none">le test passe</text>
      </g>
    </g>
    <g
       transform="translate(-222,-213)"
       id="g266">
      <path
         fill="none"
         stroke="#000000"
         d="m 654,272 v -21 h 76 v 40 h -30"
         stroke-miterlimit="10"
         id="path264" />
    </g>
    <g
       transform="translate(-222,-213)"
       id="g270">
      <path
         fill="none"
         stroke="#000000"
         d="M 710.16267,286.79048 700,291 l 10.16267,4.20952"
         stroke-miterlimit="10"
         id="path268" />
    </g>
    <g
       transform="translate(-222,-213)"
       id="g278">
      <g
         id="g276">
        <path
           fill="none"
           stroke="none"
           id="path272"
           d="" />
        <text
           fill="#000000"
           stroke="none"
           font-family="Arial"
           font-size="13px"
           font-style="normal"
           font-weight="normal"
           text-decoration="none"
           x="606.5"
           y="233.5"
           id="text274"
           style="text-decoration:none;text-decoration-line:none">modification, le test ne passe pas</text>
      </g>
    </g>
    <g
       transform="translate(-222,-213)"
       id="g282">
      <path
         fill="none"
         stroke="#000000"
         d="m 654,423 v 17 h 76 v -37 h -29"
         stroke-miterlimit="10"
         id="path280" />
    </g>
    <g
       transform="translate(-222,-213)"
       id="g286">
      <path
         fill="none"
         stroke="#000000"
         d="M 711.16267,398.79048 701,403 l 10.16267,4.20952"
         stroke-miterlimit="10"
         id="path284" />
    </g>
    <g
       transform="translate(-222,-213)"
       id="g294">
      <g
         id="g292">
        <path
           fill="none"
           stroke="none"
           id="path288"
           d="" />
        <text
           fill="#000000"
           stroke="none"
           font-family="Arial"
           font-size="13px"
           font-style="normal"
           font-weight="normal"
           text-decoration="none"
           x="598.5"
           y="458.5"
           id="text290"
           style="text-decoration:none;text-decoration-line:none">modification, le test ne passe pas</text>
      </g>
    </g>
  </g>
</svg>
