<?xml version="1.0" encoding="UTF-8" standalone="no"?>
<svg
   version="1.1"
   width="1054.5810546875"
   height="449"
   id="svg882"
   sodipodi:docname="class diagram.svg"
   inkscape:version="1.1.2 (76b9e6a115, 2022-02-25)"
   xmlns:inkscape="http://www.inkscape.org/namespaces/inkscape"
   xmlns:sodipodi="http://sodipodi.sourceforge.net/DTD/sodipodi-0.dtd"
   xmlns="http://www.w3.org/2000/svg"
   xmlns:svg="http://www.w3.org/2000/svg">
  <sodipodi:namedview
     id="namedview884"
     pagecolor="#ffffff"
     bordercolor="#666666"
     borderopacity="1.0"
     inkscape:pageshadow="2"
     inkscape:pageopacity="0.0"
     inkscape:pagecheckerboard="0"
     showgrid="false"
     inkscape:zoom="1.23651"
     inkscape:cx="527.29053"
     inkscape:cy="224.42197"
     inkscape:window-width="3840"
     inkscape:window-height="2336"
     inkscape:window-x="0"
     inkscape:window-y="27"
     inkscape:window-maximized="1"
     inkscape:current-layer="g880" />
  <defs
     id="defs2" />
  <g
     id="g880">
    <g
       transform="translate(-294,-166)"
       id="g186">
      <rect
         fill="#c0c0c0"
         stroke="none"
         x="534"
         y="391"
         width="82.702637"
         height="57"
         opacity="0.2"
         id="rect184" />
    </g>
    <g
       transform="translate(-294,-166)"
       id="g190">
      <rect
         fill="#ffffff"
         stroke="none"
         x="527"
         y="384"
         width="82.702637"
         height="57"
         id="rect188" />
    </g>
    <g
       transform="translate(-294,-166)"
       id="g194">
      <path
         fill="none"
         stroke="#000000"
         d="m 527,384 h 82.70264 v 57 H 527 Z"
         stroke-miterlimit="10"
         id="path192" />
    </g>
    <g
       transform="translate(-294,-166)"
       id="g198">
      <path
         fill="none"
         stroke="#000000"
         d="m 527,409 h 82.70264"
         stroke-miterlimit="10"
         id="path196" />
    </g>
    <g
       transform="translate(-294,-166)"
       id="g202">
      <path
         fill="none"
         stroke="#000000"
         d="m 527,432 h 82.70264"
         stroke-miterlimit="10"
         id="path200" />
    </g>
    <g
       transform="translate(-294,-166)"
       id="g210">
      <g
         id="g208">
        <path
           fill="none"
           stroke="none"
           id="path204"
           d="" />
        <text
           fill="#000000"
           stroke="none"
           font-family="Arial"
           font-size="13px"
           font-style="normal"
           font-weight="bold"
           text-decoration="none"
           x="540.89453"
           y="401.5"
           id="text206"
           style="text-decoration:none;text-decoration-line:none">Stagiaire</text>
      </g>
    </g>
    <g
       transform="translate(-294,-166)"
       id="g218">
      <g
         id="g216">
        <path
           fill="none"
           stroke="none"
           id="path212"
           d="" />
        <text
           fill="#000000"
           stroke="none"
           font-family="Arial"
           font-size="13px"
           font-style="normal"
           font-weight="normal"
           text-decoration="none"
           x="532"
           y="424.5"
           id="text214"
           style="text-decoration:none;text-decoration-line:none">-code: String</text>
      </g>
    </g>
    <g
       transform="translate(-294,-166)"
       id="g222">
      <rect
         fill="#c0c0c0"
         stroke="none"
         x="711"
         y="531"
         width="128.93262"
         height="44"
         opacity="0.2"
         id="rect220" />
    </g>
    <g
       transform="translate(-294,-166)"
       id="g226">
      <rect
         fill="#ffffff"
         stroke="none"
         x="704"
         y="524"
         width="128.93262"
         height="44"
         id="rect224" />
    </g>
    <g
       transform="translate(-294,-166)"
       id="g230">
      <path
         fill="none"
         stroke="#000000"
         d="m 704,524 h 128.93262 v 44 H 704 Z"
         stroke-miterlimit="10"
         id="path228" />
    </g>
    <g
       transform="translate(-294,-166)"
       id="g234">
      <path
         fill="none"
         stroke="#000000"
         d="M 704,549 H 832.93262"
         stroke-miterlimit="10"
         id="path232" />
    </g>
    <g
       transform="translate(-294,-166)"
       id="g238">
      <path
         fill="none"
         stroke="#000000"
         d="M 704,559 H 832.93262"
         stroke-miterlimit="10"
         id="path236" />
    </g>
    <g
       transform="translate(-294,-166)"
       id="g246">
      <g
         id="g244">
        <path
           fill="none"
           stroke="none"
           id="path240"
           d="" />
        <text
           fill="#000000"
           stroke="none"
           font-family="Arial"
           font-size="13px"
           font-style="normal"
           font-weight="bold"
           text-decoration="none"
           x="736.32178"
           y="541.5"
           id="text242"
           style="text-decoration:none;text-decoration-line:none">Formateur</text>
      </g>
    </g>
    <g
       transform="translate(-294,-166)"
       id="g250">
      <rect
         fill="#c0c0c0"
         stroke="none"
         x="959"
         y="495"
         width="145.81104"
         height="117"
         opacity="0.2"
         id="rect248" />
    </g>
    <g
       transform="translate(-294,-166)"
       id="g254">
      <rect
         fill="#ffffff"
         stroke="none"
         x="952"
         y="488"
         width="145.81104"
         height="117"
         id="rect252" />
    </g>
    <g
       transform="translate(-294,-166)"
       id="g258">
      <path
         fill="none"
         stroke="#000000"
         d="m 952,488 h 145.811 V 605 H 952 Z"
         stroke-miterlimit="10"
         id="path256" />
    </g>
    <g
       transform="translate(-294,-166)"
       id="g262">
      <path
         fill="none"
         stroke="#000000"
         d="m 952,513 h 145.811"
         stroke-miterlimit="10"
         id="path260" />
    </g>
    <g
       transform="translate(-294,-166)"
       id="g266">
      <path
         fill="none"
         stroke="#000000"
         d="m 952,596 h 145.811"
         stroke-miterlimit="10"
         id="path264" />
    </g>
    <g
       transform="translate(-294,-166)"
       id="g274">
      <g
         id="g272">
        <path
           fill="none"
           stroke="none"
           id="path268"
           d="" />
        <text
           fill="#000000"
           stroke="none"
           font-family="Arial"
           font-size="13px"
           font-style="normal"
           font-weight="bold"
           text-decoration="none"
           x="1002.1587"
           y="505.5"
           id="text270"
           style="text-decoration:none;text-decoration-line:none">Module</text>
      </g>
    </g>
    <g
       transform="translate(-294,-166)"
       id="g282">
      <g
         id="g280">
        <path
           fill="none"
           stroke="none"
           id="path276"
           d="" />
        <text
           fill="#000000"
           stroke="none"
           font-family="Arial"
           font-size="13px"
           font-style="normal"
           font-weight="normal"
           text-decoration="none"
           x="957"
           y="528.5"
           id="text278"
           style="text-decoration:none;text-decoration-line:none">-nom: String</text>
      </g>
    </g>
    <g
       transform="translate(-294,-166)"
       id="g290">
      <g
         id="g288">
        <path
           fill="none"
           stroke="none"
           id="path284"
           d="" />
        <text
           fill="#000000"
           stroke="none"
           font-family="Arial"
           font-size="13px"
           font-style="normal"
           font-weight="normal"
           text-decoration="none"
           x="957"
           y="543.5"
           id="text286"
           style="text-decoration:none;text-decoration-line:none">-description: String</text>
      </g>
    </g>
    <g
       transform="translate(-294,-166)"
       id="g298">
      <g
         id="g296">
        <path
           fill="none"
           stroke="none"
           id="path292"
           d="" />
        <text
           fill="#000000"
           stroke="none"
           font-family="Arial"
           font-size="13px"
           font-style="normal"
           font-weight="normal"
           text-decoration="none"
           x="957"
           y="558.5"
           id="text294"
           style="text-decoration:none;text-decoration-line:none">-code: int</text>
      </g>
    </g>
    <g
       transform="translate(-294,-166)"
       id="g306">
      <g
         id="g304">
        <path
           fill="none"
           stroke="none"
           id="path300"
           d="" />
        <text
           fill="#000000"
           stroke="none"
           font-family="Arial"
           font-size="13px"
           font-style="normal"
           font-weight="normal"
           text-decoration="none"
           x="957"
           y="573.5"
           id="text302"
           style="text-decoration:none;text-decoration-line:none">-debut: ZonedDateTime</text>
      </g>
    </g>
    <g
       transform="translate(-294,-166)"
       id="g314">
      <g
         id="g312">
        <path
           fill="none"
           stroke="none"
           id="path308"
           d="" />
        <text
           fill="#000000"
           stroke="none"
           font-family="Arial"
           font-size="13px"
           font-style="normal"
           font-weight="normal"
           text-decoration="none"
           x="957"
           y="588.5"
           id="text310"
           style="text-decoration:none;text-decoration-line:none">-nombreJour: int</text>
      </g>
    </g>
    <g
       transform="translate(-294,-166)"
       id="g318">
      <rect
         fill="#c0c0c0"
         stroke="none"
         x="494"
         y="223"
         width="162.91162"
         height="57"
         opacity="0.2"
         id="rect316" />
    </g>
    <g
       transform="translate(-294,-166)"
       id="g322">
      <rect
         fill="#ffffff"
         stroke="none"
         x="487"
         y="216"
         width="162.91162"
         height="57"
         id="rect320" />
    </g>
    <g
       transform="translate(-294,-166)"
       id="g326">
      <path
         fill="none"
         stroke="#000000"
         d="m 487,216 h 162.91162 v 57 H 487 Z"
         stroke-miterlimit="10"
         id="path324" />
    </g>
    <g
       transform="translate(-294,-166)"
       id="g330">
      <path
         fill="none"
         stroke="#000000"
         d="M 487,241 H 649.91162"
         stroke-miterlimit="10"
         id="path328" />
    </g>
    <g
       transform="translate(-294,-166)"
       id="g334">
      <path
         fill="none"
         stroke="#000000"
         d="M 487,264 H 649.91162"
         stroke-miterlimit="10"
         id="path332" />
    </g>
    <g
       transform="translate(-294,-166)"
       id="g342">
      <g
         id="g340">
        <path
           fill="none"
           stroke="none"
           id="path336"
           d="" />
        <text
           fill="#000000"
           stroke="none"
           font-family="Arial"
           font-size="13px"
           font-style="normal"
           font-weight="bold"
           text-decoration="none"
           x="545.34399"
           y="233.5"
           id="text338"
           style="text-decoration:none;text-decoration-line:none">Groupe</text>
      </g>
    </g>
    <g
       transform="translate(-294,-166)"
       id="g350">
      <g
         id="g348">
        <path
           fill="none"
           stroke="none"
           id="path344"
           d="" />
        <text
           fill="#000000"
           stroke="none"
           font-family="Arial"
           font-size="13px"
           font-style="normal"
           font-weight="normal"
           text-decoration="none"
           x="492"
           y="255.5"
           id="text346"
           style="text-decoration:none;text-decoration-line:none">-nom</text>
      </g>
    </g>
    <g
       transform="translate(-294,-166)"
       id="g354">
      <rect
         fill="#c0c0c0"
         stroke="none"
         x="511"
         y="525"
         width="128.93262"
         height="57"
         opacity="0.2"
         id="rect352" />
    </g>
    <g
       transform="translate(-294,-166)"
       id="g358">
      <rect
         fill="#ffffff"
         stroke="none"
         x="504"
         y="518"
         width="128.93262"
         height="57"
         id="rect356" />
    </g>
    <g
       transform="translate(-294,-166)"
       id="g362">
      <path
         fill="none"
         stroke="#000000"
         d="m 504,518 h 128.93262 v 57 H 504 Z"
         stroke-miterlimit="10"
         id="path360" />
    </g>
    <g
       transform="translate(-294,-166)"
       id="g366">
      <path
         fill="none"
         stroke="#000000"
         d="M 504,543 H 632.93262"
         stroke-miterlimit="10"
         id="path364" />
    </g>
    <g
       transform="translate(-294,-166)"
       id="g370">
      <path
         fill="none"
         stroke="#000000"
         d="M 504,566 H 632.93262"
         stroke-miterlimit="10"
         id="path368" />
    </g>
    <g
       transform="translate(-294,-166)"
       id="g378">
      <g
         id="g376">
        <path
           fill="none"
           stroke="none"
           id="path372"
           d="" />
        <text
           fill="#000000"
           stroke="none"
           font-family="Arial"
           font-size="13px"
           font-style="normal"
           font-weight="bold"
           text-decoration="none"
           x="541.37451"
           y="535.5"
           id="text374"
           style="text-decoration:none;text-decoration-line:none">Employe</text>
      </g>
    </g>
    <g
       transform="translate(-294,-166)"
       id="g386">
      <g
         id="g384">
        <path
           fill="none"
           stroke="none"
           id="path380"
           d="" />
        <text
           fill="#000000"
           stroke="none"
           font-family="Arial"
           font-size="13px"
           font-style="normal"
           font-weight="normal"
           text-decoration="none"
           x="509"
           y="558.5"
           id="text382"
           style="text-decoration:none;text-decoration-line:none">-motDePasse: String</text>
      </g>
    </g>
    <g
       transform="translate(-294,-166)"
       id="g390">
      <rect
         fill="#c0c0c0"
         stroke="none"
         x="1207"
         y="383"
         width="138.58105"
         height="72"
         opacity="0.2"
         id="rect388" />
    </g>
    <g
       transform="translate(-294,-166)"
       id="g394">
      <rect
         fill="#ffffff"
         stroke="none"
         x="1200"
         y="376"
         width="138.58105"
         height="72"
         id="rect392" />
    </g>
    <g
       transform="translate(-294,-166)"
       id="g398">
      <path
         fill="none"
         stroke="#000000"
         d="m 1200,376 h 138.5811 v 72 H 1200 Z"
         stroke-miterlimit="10"
         id="path396" />
    </g>
    <g
       transform="translate(-294,-166)"
       id="g402">
      <path
         fill="none"
         stroke="#000000"
         d="m 1200,401 h 138.5811"
         stroke-miterlimit="10"
         id="path400" />
    </g>
    <g
       transform="translate(-294,-166)"
       id="g406">
      <path
         fill="none"
         stroke="#000000"
         d="m 1200,439 h 138.5811"
         stroke-miterlimit="10"
         id="path404" />
    </g>
    <g
       transform="translate(-294,-166)"
       id="g414">
      <g
         id="g412">
        <path
           fill="none"
           stroke="none"
           id="path408"
           d="" />
        <text
           fill="#000000"
           stroke="none"
           font-family="Arial"
           font-size="13px"
           font-style="normal"
           font-weight="bold"
           text-decoration="none"
           x="1229.916"
           y="393.5"
           id="text410"
           style="text-decoration:none;text-decoration-line:none">Emargement</text>
      </g>
    </g>
    <g
       transform="translate(-294,-166)"
       id="g422">
      <g
         id="g420">
        <path
           fill="none"
           stroke="none"
           id="path416"
           d="" />
        <text
           fill="#000000"
           stroke="none"
           font-family="Arial"
           font-size="13px"
           font-style="normal"
           font-weight="normal"
           text-decoration="none"
           x="1205"
           y="416.5"
           id="text418"
           style="text-decoration:none;text-decoration-line:none">-signature: File</text>
      </g>
    </g>
    <g
       transform="translate(-294,-166)"
       id="g430">
      <g
         id="g428">
        <path
           fill="none"
           stroke="none"
           id="path424"
           d="" />
        <text
           fill="#000000"
           stroke="none"
           font-family="Arial"
           font-size="13px"
           font-style="normal"
           font-weight="normal"
           text-decoration="none"
           x="1205"
           y="431.5"
           id="text426"
           style="text-decoration:none;text-decoration-line:none">-date: Date</text>
      </g>
    </g>
    <g
       transform="translate(-294,-166)"
       id="g434">
      <rect
         fill="#c0c0c0"
         stroke="none"
         x="311"
         y="431"
         width="124.61621"
         height="102"
         opacity="0.2"
         id="rect432" />
    </g>
    <g
       transform="translate(-294,-166)"
       id="g438">
      <rect
         fill="#ffffff"
         stroke="none"
         x="304"
         y="424"
         width="124.61621"
         height="102"
         id="rect436" />
    </g>
    <g
       transform="translate(-294,-166)"
       id="g442">
      <path
         fill="none"
         stroke="#000000"
         d="M 304,424 H 428.61621 V 526 H 304 Z"
         stroke-miterlimit="10"
         id="path440" />
    </g>
    <g
       transform="translate(-294,-166)"
       id="g446">
      <path
         fill="none"
         stroke="#000000"
         d="M 304,449 H 428.61621"
         stroke-miterlimit="10"
         id="path444" />
    </g>
    <g
       transform="translate(-294,-166)"
       id="g450">
      <path
         fill="none"
         stroke="#000000"
         d="M 304,517 H 428.61621"
         stroke-miterlimit="10"
         id="path448" />
    </g>
    <g
       transform="translate(-294,-166)"
       id="g458">
      <g
         id="g456">
        <path
           fill="none"
           stroke="none"
           id="path452"
           d="" />
        <text
           fill="#000000"
           stroke="none"
           font-family="Arial"
           font-size="13px"
           font-style="normal"
           font-weight="bold"
           text-decoration="none"
           x="336.68677"
           y="441.5"
           id="text454"
           style="text-decoration:none;text-decoration-line:none">Personne</text>
      </g>
    </g>
    <g
       transform="translate(-294,-166)"
       id="g466">
      <g
         id="g464">
        <path
           fill="none"
           stroke="none"
           id="path460"
           d="" />
        <text
           fill="#000000"
           stroke="none"
           font-family="Arial"
           font-size="13px"
           font-style="normal"
           font-weight="normal"
           text-decoration="none"
           x="309"
           y="464.5"
           id="text462"
           style="text-decoration:none;text-decoration-line:none">-nom: String</text>
      </g>
    </g>
    <g
       transform="translate(-294,-166)"
       id="g474">
      <g
         id="g472">
        <path
           fill="none"
           stroke="none"
           id="path468"
           d="" />
        <text
           fill="#000000"
           stroke="none"
           font-family="Arial"
           font-size="13px"
           font-style="normal"
           font-weight="normal"
           text-decoration="none"
           x="309"
           y="479.5"
           id="text470"
           style="text-decoration:none;text-decoration-line:none">-prenom: String</text>
      </g>
    </g>
    <g
       transform="translate(-294,-166)"
       id="g482">
      <g
         id="g480">
        <path
           fill="none"
           stroke="none"
           id="path476"
           d="" />
        <text
           fill="#000000"
           stroke="none"
           font-family="Arial"
           font-size="13px"
           font-style="normal"
           font-weight="normal"
           text-decoration="none"
           x="309"
           y="494.5"
           id="text478"
           style="text-decoration:none;text-decoration-line:none">-email: String</text>
      </g>
    </g>
    <g
       transform="translate(-294,-166)"
       id="g490">
      <g
         id="g488">
        <path
           fill="none"
           stroke="none"
           id="path484"
           d="" />
        <text
           fill="#000000"
           stroke="none"
           font-family="Arial"
           font-size="13px"
           font-style="normal"
           font-weight="normal"
           text-decoration="none"
           x="309"
           y="509.5"
           id="text486"
           style="text-decoration:none;text-decoration-line:none">-role: PersonneRole</text>
      </g>
    </g>
    <g
       transform="translate(-294,-166)"
       id="g494">
      <path
         fill="none"
         stroke="#000000"
         d="M 504,544 H 472 V 480 H 429"
         stroke-miterlimit="10"
         id="path492" />
    </g>
    <g
       transform="translate(-294,-166)"
       id="g498">
      <path
         fill="#ffffff"
         stroke="none"
         d="M 449.32535,471.58096 429,480 l 20.32535,8.41904"
         id="path496" />
    </g>
    <g
       transform="translate(-294,-166)"
       id="g502">
      <path
         fill="none"
         stroke="#000000"
         d="M 449.32535,471.58096 429,480 l 20.32535,8.41904 v -16.83808"
         stroke-miterlimit="10"
         id="path500" />
    </g>
    <g
       transform="translate(-294,-166)"
       id="g506">
      <path
         fill="none"
         stroke="#000000"
         d="M 703,546 H 634"
         stroke-miterlimit="10"
         id="path504" />
    </g>
    <g
       transform="translate(-294,-166)"
       id="g510">
      <path
         fill="#ffffff"
         stroke="none"
         d="M 654.32535,537.58096 634,546 l 20.32535,8.41904"
         id="path508" />
    </g>
    <g
       transform="translate(-294,-166)"
       id="g514">
      <path
         fill="none"
         stroke="#000000"
         d="M 654.32535,537.58096 634,546 l 20.32535,8.41904 v -16.83808"
         stroke-miterlimit="10"
         id="path512" />
    </g>
    <g
       transform="translate(-294,-166)"
       id="g518">
      <path
         fill="none"
         stroke="#000000"
         d="m 527,416 h -55 v 64 h -43"
         stroke-miterlimit="10"
         id="path516" />
    </g>
    <g
       transform="translate(-294,-166)"
       id="g522">
      <path
         fill="#ffffff"
         stroke="none"
         d="M 449.32535,471.58096 429,480 l 20.32535,8.41904"
         id="path520" />
    </g>
    <g
       transform="translate(-294,-166)"
       id="g526">
      <path
         fill="none"
         stroke="#000000"
         d="M 449.32535,471.58096 429,480 l 20.32535,8.41904 v -16.83808"
         stroke-miterlimit="10"
         id="path524" />
    </g>
    <g
       transform="translate(-294,-166)"
       id="g530">
      <path
         fill="none"
         stroke="#000000"
         d="M 1199,412 H 1070"
         stroke-miterlimit="10"
         id="path528" />
    </g>
    <g
       transform="translate(-294,-166)"
       id="g534">
      <path
         fill="none"
         stroke="#000000"
         d="m 1073.4645,415.53553 7.071,-7.07106"
         stroke-miterlimit="10"
         id="path532" />
    </g>
    <g
       transform="translate(-294,-166)"
       id="g538">
      <path
         fill="none"
         stroke="#000000"
         d="m 1080.5355,415.53553 -7.071,-7.07106"
         stroke-miterlimit="10"
         id="path536" />
    </g>
    <g
       transform="translate(-294,-166)"
       id="g542">
      <path
         fill="none"
         stroke="#000000"
         d="M 1188.8373,416.20952 1199,412 l -10.1627,-4.20952"
         stroke-miterlimit="10"
         id="path540" />
    </g>
    <g
       transform="translate(-294,-166)"
       id="g550">
      <g
         id="g548">
        <path
           fill="none"
           stroke="none"
           id="path544"
           d="" />
        <text
           fill="#000000"
           stroke="none"
           font-family="Arial"
           font-size="13px"
           font-style="normal"
           font-weight="normal"
           text-decoration="none"
           x="1174.5854"
           y="403.5"
           id="text546"
           style="text-decoration:none;text-decoration-line:none">*</text>
      </g>
    </g>
    <g
       transform="translate(-294,-166)"
       id="g558">
      <g
         id="g556">
        <path
           fill="none"
           stroke="none"
           id="path552"
           d="" />
        <text
           fill="#000000"
           stroke="none"
           font-family="Arial"
           font-size="13px"
           font-style="normal"
           font-weight="normal"
           text-decoration="none"
           x="1087.5"
           y="403.5"
           id="text554"
           style="text-decoration:none;text-decoration-line:none">1</text>
      </g>
    </g>
    <g
       transform="translate(-294,-166)"
       id="g562">
      <path
         fill="none"
         stroke="#000000"
         d="M 568,383 V 274"
         stroke-miterlimit="10"
         id="path560" />
    </g>
    <g
       transform="translate(-294,-166)"
       id="g566">
      <path
         fill="#ffffff"
         stroke="none"
         d="M 572.20952,284.16267 568,274 563.79048,284.16267 568,296"
         id="path564" />
    </g>
    <g
       transform="translate(-294,-166)"
       id="g570">
      <path
         fill="none"
         stroke="#000000"
         d="M 572.20952,284.16267 568,274 563.79048,284.16267 568,296 l 4.20952,-11.83733"
         stroke-miterlimit="10"
         id="path568" />
    </g>
    <g
       transform="translate(-294,-166)"
       id="g578">
      <g
         id="g576">
        <path
           fill="none"
           stroke="none"
           id="path572"
           d="" />
        <text
           fill="#000000"
           stroke="none"
           font-family="Arial"
           font-size="13px"
           font-style="normal"
           font-weight="normal"
           text-decoration="none"
           x="574.5"
           y="370.5"
           id="text574"
           style="text-decoration:none;text-decoration-line:none">-stagiaires</text>
      </g>
    </g>
    <g
       transform="translate(-294,-166)"
       id="g586">
      <g
         id="g584">
        <path
           fill="none"
           stroke="none"
           id="path580"
           d="" />
        <text
           fill="#000000"
           stroke="none"
           font-family="Arial"
           font-size="13px"
           font-style="normal"
           font-weight="normal"
           text-decoration="none"
           x="555.22046"
           y="376.5"
           id="text582"
           style="text-decoration:none;text-decoration-line:none">*</text>
      </g>
    </g>
    <g
       transform="translate(-294,-166)"
       id="g594">
      <g
         id="g592">
        <path
           fill="none"
           stroke="none"
           id="path588"
           d="" />
        <text
           fill="#000000"
           stroke="none"
           font-family="Arial"
           font-size="13px"
           font-style="normal"
           font-weight="normal"
           text-decoration="none"
           x="502.5"
           y="298"
           id="text590"
           style="text-decoration:none;text-decoration-line:none">-groupes</text>
      </g>
    </g>
    <g
       transform="translate(-294,-166)"
       id="g602">
      <g
         id="g600">
        <path
           fill="none"
           stroke="none"
           id="path596"
           d="" />
        <text
           fill="#000000"
           stroke="none"
           font-family="Arial"
           font-size="13px"
           font-style="normal"
           font-weight="normal"
           text-decoration="none"
           x="577.22046"
           y="299.5"
           id="text598"
           style="text-decoration:none;text-decoration-line:none">*</text>
      </g>
    </g>
    <g
       transform="translate(-294,-166)"
       id="g606">
      <path
         fill="none"
         stroke="#000000"
         d="M 834,546 H 951"
         stroke-miterlimit="10"
         id="path604" />
    </g>
    <g
       transform="translate(-294,-166)"
       id="g614">
      <g
         id="g612">
        <path
           fill="none"
           stroke="none"
           id="path608"
           d="" />
        <text
           fill="#000000"
           stroke="none"
           font-family="Arial"
           font-size="13px"
           font-style="normal"
           font-weight="normal"
           text-decoration="none"
           x="839.5"
           y="535.5"
           id="text610"
           style="text-decoration:none;text-decoration-line:none">-formateur</text>
      </g>
    </g>
    <g
       transform="translate(-294,-166)"
       id="g622">
      <g
         id="g620">
        <path
           fill="none"
           stroke="none"
           id="path616"
           d="" />
        <text
           fill="#000000"
           stroke="none"
           font-family="Arial"
           font-size="13px"
           font-style="normal"
           font-weight="normal"
           text-decoration="none"
           x="851.5"
           y="562.5"
           id="text618"
           style="text-decoration:none;text-decoration-line:none">1</text>
      </g>
    </g>
    <g
       transform="translate(-294,-166)"
       id="g630">
      <g
         id="g628">
        <path
           fill="none"
           stroke="none"
           id="path624"
           d="" />
        <text
           fill="#000000"
           stroke="none"
           font-family="Arial"
           font-size="13px"
           font-style="normal"
           font-weight="normal"
           text-decoration="none"
           x="894.5"
           y="560.5"
           id="text626"
           style="text-decoration:none;text-decoration-line:none">-modules</text>
      </g>
    </g>
    <g
       transform="translate(-294,-166)"
       id="g638">
      <g
         id="g636">
        <path
           fill="none"
           stroke="none"
           id="path632"
           d="" />
        <text
           fill="#000000"
           stroke="none"
           font-family="Arial"
           font-size="13px"
           font-style="normal"
           font-weight="normal"
           text-decoration="none"
           x="935.22046"
           y="536.5"
           id="text634"
           style="text-decoration:none;text-decoration-line:none">*</text>
      </g>
    </g>
    <g
       transform="translate(-294,-166)"
       id="g642">
      <rect
         fill="#c0c0c0"
         stroke="none"
         x="988"
         y="397"
         width="87.736328"
         height="44"
         opacity="0.2"
         id="rect640" />
    </g>
    <g
       transform="translate(-294,-166)"
       id="g646">
      <rect
         fill="#ffffff"
         stroke="none"
         x="981"
         y="390"
         width="87.736328"
         height="44"
         id="rect644" />
    </g>
    <g
       transform="translate(-294,-166)"
       id="g650">
      <path
         fill="none"
         stroke="#000000"
         d="m 981,390 h 87.7363 v 44 H 981 Z"
         stroke-miterlimit="10"
         id="path648" />
    </g>
    <g
       transform="translate(-294,-166)"
       id="g654">
      <path
         fill="none"
         stroke="#000000"
         d="m 981,415 h 87.7363"
         stroke-miterlimit="10"
         id="path652" />
    </g>
    <g
       transform="translate(-294,-166)"
       id="g658">
      <path
         fill="none"
         stroke="#000000"
         d="m 981,425 h 87.7363"
         stroke-miterlimit="10"
         id="path656" />
    </g>
    <g
       transform="translate(-294,-166)"
       id="g666">
      <g
         id="g664">
        <path
           fill="none"
           stroke="none"
           id="path660"
           d="" />
        <text
           fill="#000000"
           stroke="none"
           font-family="Arial"
           font-size="13px"
           font-style="normal"
           font-weight="bold"
           text-decoration="none"
           x="985.5"
           y="407.5"
           id="text662"
           style="text-decoration:none;text-decoration-line:none">Participation</text>
      </g>
    </g>
    <g
       transform="translate(-294,-166)"
       id="g670">
      <path
         fill="none"
         stroke="#000000"
         d="m 1024,435 v 52"
         stroke-miterlimit="10"
         id="path668" />
    </g>
    <g
       transform="translate(-294,-166)"
       id="g678">
      <g
         id="g676">
        <path
           fill="none"
           stroke="none"
           id="path672"
           d="" />
        <text
           fill="#000000"
           stroke="none"
           font-family="Arial"
           font-size="13px"
           font-style="normal"
           font-weight="normal"
           text-decoration="none"
           x="1032.5"
           y="482.5"
           id="text674"
           style="text-decoration:none;text-decoration-line:none">-participations</text>
      </g>
    </g>
    <g
       transform="translate(-294,-166)"
       id="g686">
      <g
         id="g684">
        <path
           fill="none"
           stroke="none"
           id="path680"
           d="" />
        <text
           fill="#000000"
           stroke="none"
           font-family="Arial"
           font-size="13px"
           font-style="normal"
           font-weight="normal"
           text-decoration="none"
           x="1010.2205"
           y="447.5"
           id="text682"
           style="text-decoration:none;text-decoration-line:none">*</text>
      </g>
    </g>
    <g
       transform="translate(-294,-166)"
       id="g694">
      <g
         id="g692">
        <path
           fill="none"
           stroke="none"
           id="path688"
           d="" />
        <text
           fill="#000000"
           stroke="none"
           font-family="Arial"
           font-size="13px"
           font-style="normal"
           font-weight="normal"
           text-decoration="none"
           x="1006.5"
           y="481.5"
           id="text690"
           style="text-decoration:none;text-decoration-line:none">1</text>
      </g>
    </g>
    <g
       transform="translate(-294,-166)"
       id="g698">
      <path
         fill="none"
         stroke="#000000"
         d="M 980,412 H 611"
         stroke-miterlimit="10"
         id="path696" />
    </g>
    <g
       transform="translate(-294,-166)"
       id="g706">
      <g
         id="g704">
        <path
           fill="none"
           stroke="none"
           id="path700"
           d="" />
        <text
           fill="#000000"
           stroke="none"
           font-family="Arial"
           font-size="13px"
           font-style="normal"
           font-weight="normal"
           text-decoration="none"
           x="955.22046"
           y="403.5"
           id="text702"
           style="text-decoration:none;text-decoration-line:none">*</text>
      </g>
    </g>
    <g
       transform="translate(-294,-166)"
       id="g714">
      <g
         id="g712">
        <path
           fill="none"
           stroke="none"
           id="path708"
           d="" />
        <text
           fill="#000000"
           stroke="none"
           font-family="Arial"
           font-size="13px"
           font-style="normal"
           font-weight="normal"
           text-decoration="none"
           x="622.5"
           y="437.5"
           id="text710"
           style="text-decoration:none;text-decoration-line:none">1</text>
      </g>
    </g>
    <g
       transform="translate(-294,-166)"
       id="g718">
      <rect
         fill="#c0c0c0"
         stroke="none"
         x="967"
         y="255"
         width="129.6499"
         height="72"
         opacity="0.2"
         id="rect716" />
    </g>
    <g
       transform="translate(-294,-166)"
       id="g722">
      <rect
         fill="#ffffff"
         stroke="none"
         x="960"
         y="248"
         width="129.6499"
         height="72"
         id="rect720" />
    </g>
    <g
       transform="translate(-294,-166)"
       id="g726">
      <path
         fill="none"
         stroke="#000000"
         d="m 960,248 h 129.6499 v 72 H 960 Z"
         stroke-miterlimit="10"
         id="path724" />
    </g>
    <g
       transform="translate(-294,-166)"
       id="g730">
      <path
         fill="none"
         stroke="#000000"
         d="m 960,273 h 129.6499"
         stroke-miterlimit="10"
         id="path728" />
    </g>
    <g
       transform="translate(-294,-166)"
       id="g734">
      <path
         fill="none"
         stroke="#000000"
         d="m 960,311 h 129.6499"
         stroke-miterlimit="10"
         id="path732" />
    </g>
    <g
       transform="translate(-294,-166)"
       id="g742">
      <g
         id="g740">
        <path
           fill="none"
           stroke="none"
           id="path736"
           d="" />
        <text
           fill="#000000"
           stroke="none"
           font-family="Arial"
           font-size="13px"
           font-style="normal"
           font-weight="bold"
           text-decoration="none"
           x="991.95679"
           y="265.5"
           id="text738"
           style="text-decoration:none;text-decoration-line:none">Evaluation</text>
      </g>
    </g>
    <g
       transform="translate(-294,-166)"
       id="g750">
      <g
         id="g748">
        <path
           fill="none"
           stroke="none"
           id="path744"
           d="" />
        <text
           fill="#000000"
           stroke="none"
           font-family="Arial"
           font-size="13px"
           font-style="normal"
           font-weight="normal"
           text-decoration="none"
           x="965"
           y="288.5"
           id="text746"
           style="text-decoration:none;text-decoration-line:none">-note: int</text>
      </g>
    </g>
    <g
       transform="translate(-294,-166)"
       id="g758">
      <g
         id="g756">
        <path
           fill="none"
           stroke="none"
           id="path752"
           d="" />
        <text
           fill="#000000"
           stroke="none"
           font-family="Arial"
           font-size="13px"
           font-style="normal"
           font-weight="normal"
           text-decoration="none"
           x="965"
           y="303.5"
           id="text754"
           style="text-decoration:none;text-decoration-line:none">-commentaire: String</text>
      </g>
    </g>
    <g
       transform="translate(-294,-166)"
       id="g762">
      <path
         fill="none"
         stroke="#000000"
         d="M 1056,390 V 320"
         stroke-miterlimit="10"
         id="path760" />
    </g>
    <g
       transform="translate(-294,-166)"
       id="g766">
      <path
         fill="none"
         stroke="#000000"
         d="M 1060.2095,330.16267 1056,320 l -4.2095,10.16267"
         stroke-miterlimit="10"
         id="path764" />
    </g>
    <g
       transform="translate(-294,-166)"
       id="g770">
      <path
         fill="none"
         stroke="#000000"
         d="m 1059.5355,386.53553 -7.071,-7.07106"
         stroke-miterlimit="10"
         id="path768" />
    </g>
    <g
       transform="translate(-294,-166)"
       id="g774">
      <path
         fill="none"
         stroke="#000000"
         d="m 1059.5355,379.46447 -7.071,7.07106"
         stroke-miterlimit="10"
         id="path772" />
    </g>
    <g
       transform="translate(-294,-166)"
       id="g782">
      <g
         id="g780">
        <path
           fill="none"
           stroke="none"
           id="path776"
           d="" />
        <text
           fill="#000000"
           stroke="none"
           font-family="Arial"
           font-size="13px"
           font-style="normal"
           font-weight="normal"
           text-decoration="none"
           x="1069.5"
           y="338.5"
           id="text778"
           style="text-decoration:none;text-decoration-line:none">-evaluationStagiaire</text>
      </g>
    </g>
    <g
       transform="translate(-294,-166)"
       id="g790">
      <g
         id="g788">
        <path
           fill="none"
           stroke="none"
           id="path784"
           d="" />
        <text
           fill="#000000"
           stroke="none"
           font-family="Arial"
           font-size="13px"
           font-style="normal"
           font-weight="normal"
           text-decoration="none"
           x="1039.5"
           y="344.5"
           id="text786"
           style="text-decoration:none;text-decoration-line:none">1</text>
      </g>
    </g>
    <g
       transform="translate(-294,-166)"
       id="g794">
      <path
         fill="none"
         stroke="#000000"
         d="M 1000,390 V 320"
         stroke-miterlimit="10"
         id="path792" />
    </g>
    <g
       transform="translate(-294,-166)"
       id="g798">
      <path
         fill="none"
         stroke="#000000"
         d="M 1004.2095,330.16267 1000,320 l -4.20952,10.16267"
         stroke-miterlimit="10"
         id="path796" />
    </g>
    <g
       transform="translate(-294,-166)"
       id="g802">
      <path
         fill="none"
         stroke="#000000"
         d="m 1003.5355,386.53553 -7.07103,-7.07106"
         stroke-miterlimit="10"
         id="path800" />
    </g>
    <g
       transform="translate(-294,-166)"
       id="g806">
      <path
         fill="none"
         stroke="#000000"
         d="m 1003.5355,379.46447 -7.07103,7.07106"
         stroke-miterlimit="10"
         id="path804" />
    </g>
    <g
       transform="translate(-294,-166)"
       id="g814">
      <g
         id="g812">
        <path
           fill="none"
           stroke="none"
           id="path808"
           d="" />
        <text
           fill="#000000"
           stroke="none"
           font-family="Arial"
           font-size="13px"
           font-style="normal"
           font-weight="normal"
           text-decoration="none"
           x="877.5"
           y="337.5"
           id="text810"
           style="text-decoration:none;text-decoration-line:none">-evaluationModule</text>
      </g>
    </g>
    <g
       transform="translate(-294,-166)"
       id="g822">
      <g
         id="g820">
        <path
           fill="none"
           stroke="none"
           id="path816"
           d="" />
        <text
           fill="#000000"
           stroke="none"
           font-family="Arial"
           font-size="13px"
           font-style="normal"
           font-weight="normal"
           text-decoration="none"
           x="1008.5"
           y="345.5"
           id="text818"
           style="text-decoration:none;text-decoration-line:none">1</text>
      </g>
    </g>
    <g
       transform="translate(-294,-166)"
       id="g826">
      <rect
         fill="#c0c0c0"
         stroke="none"
         x="311"
         y="183"
         width="96.413574"
         height="90"
         opacity="0.2"
         id="rect824" />
    </g>
    <g
       transform="translate(-294,-166)"
       id="g830">
      <rect
         fill="#ffffff"
         stroke="none"
         x="304"
         y="176"
         width="96.413574"
         height="90"
         id="rect828" />
    </g>
    <g
       transform="translate(-294,-166)"
       id="g834">
      <path
         fill="none"
         stroke="#000000"
         d="m 304,176 h 96.41357 v 90 H 304 Z"
         stroke-miterlimit="10"
         id="path832" />
    </g>
    <g
       transform="translate(-294,-166)"
       id="g838">
      <path
         fill="none"
         stroke="#000000"
         d="m 304,214 h 96.41357"
         stroke-miterlimit="10"
         id="path836" />
    </g>
    <g
       transform="translate(-294,-166)"
       id="g846">
      <g
         id="g844">
        <path
           fill="none"
           stroke="none"
           id="path840"
           d="" />
        <text
           fill="#000000"
           stroke="none"
           font-family="Arial"
           font-size="13px"
           font-style="normal"
           font-weight="normal"
           text-decoration="none"
           x="308.84277"
           y="191.5"
           id="text842"
           style="text-decoration:none;text-decoration-line:none">«enumeration»</text>
      </g>
    </g>
    <g
       transform="translate(-294,-166)"
       id="g854">
      <g
         id="g852">
        <path
           fill="none"
           stroke="none"
           id="path848"
           d="" />
        <text
           fill="#000000"
           stroke="none"
           font-family="Arial"
           font-size="13px"
           font-style="normal"
           font-weight="bold"
           text-decoration="none"
           x="308.5"
           y="206.5"
           id="text850"
           style="text-decoration:none;text-decoration-line:none">PersonneRole</text>
      </g>
    </g>
    <g
       transform="translate(-294,-166)"
       id="g862">
      <g
         id="g860">
        <path
           fill="none"
           stroke="none"
           id="path856"
           d="" />
        <text
           fill="#000000"
           stroke="none"
           font-family="Arial"
           font-size="13px"
           font-style="normal"
           font-weight="normal"
           text-decoration="none"
           x="309"
           y="229.5"
           id="text858"
           style="text-decoration:none;text-decoration-line:none">STAGIAIRE</text>
      </g>
    </g>
    <g
       transform="translate(-294,-166)"
       id="g870">
      <g
         id="g868">
        <path
           fill="none"
           stroke="none"
           id="path864"
           d="" />
        <text
           fill="#000000"
           stroke="none"
           font-family="Arial"
           font-size="13px"
           font-style="normal"
           font-weight="normal"
           text-decoration="none"
           x="309"
           y="244.5"
           id="text866"
           style="text-decoration:none;text-decoration-line:none">FORMATEUR</text>
      </g>
    </g>
    <g
       transform="translate(-294,-166)"
       id="g878">
      <g
         id="g876">
        <path
           fill="none"
           stroke="none"
           id="path872"
           d="" />
        <text
           fill="#000000"
           stroke="none"
           font-family="Arial"
           font-size="13px"
           font-style="normal"
           font-weight="normal"
           text-decoration="none"
           x="309"
           y="259.5"
           id="text874"
           style="text-decoration:none;text-decoration-line:none">ADMIN</text>
      </g>
    </g>
  </g>
</svg>
